﻿[
  {
    "BookId": 1,
    "Title": "Java How to Program",
    "AuthorName": "Deitel & Deitel",
    "EditionYear": 2007
  },
  {
    "BookId": 2,
    "Title": "Patterns of Enterprise Application Architecture",
    "AuthorName": "Martin Fowler",
    "EditionYear": 2002
  },
  {
    "BookId": 3,
    "Title": "Head First Design Patterns",
    "AuthorName": "Elisabeth Freeman",
    "EditionYear": 2004
  },
  {
    "BookId": 4,
    "Title": "Internet & World Wide Web: How to Program",
    "AuthorName": "Deitel & Deitel",
    "EditionYear": 2007
  }
  //,

  //[
  //  {
  //    "Attribute": "Title",
  //    "Order": "asc"
  //  }
  //]
]
